{
    "1":{
        "contenido":" <b>FEEDBACK :</b> Lorem ipsum, dolor sit amet consectetur adipisicing elit.Temporibus consequatur sapiente quos, quod maxime minus porro molestiae dicta iure quidem aliquid odit, iste maiores voluptates dolor enim, voluptas <br><br>doloremque delectus eveniet blanditiis vel! Porro magnam harum totam explicabo quibusdam. Eligendi architecto dolor adipisci culpa, dolore et earum autem dolorum quia."
    },

    "2":{
        "contenido":" <b>FEEDBACK :</b> Lorem Ipsun tiure quidem aliquid odit, iste maiores voluptates dolor enim, voluptas <br><br>doloremque delectus eveniet blanditiis vel! Porro magnam harum totam explicabo quibusdam. Eligendi architecto dolor adipisci culpa, dolore et earum autem dolorum quia."
    }
}